[
    {"examples":[
    {"input":[[6,6,6],[3,2,3]], "output":3},
    {"input":[[6,6],[2,3]], "output":2},
    {"input":[[6,6],[1,2]], "output":2},
    {"input":[[1,6,5],[6,2,7]], "output":-1},
    {"input":[[7,6],[6,3]], "output":2}
    ],
    "attribute":[0,0,0,0,0,0,0,0,0,0,0,0,0,0,0,0,0,0,0,0,0,0,0,0,0,0,0,0,0,0,0,0,0,1]},
    {"examples":[
    {"input":[[6,6],[2,0]], "output":2},
    {"input":[[6,6],[2,3]], "output":2},
    {"input":[[1,6,2],[6,2,6]], "output":-1},
    {"input":[[4,6],[6,7]], "output":-2},
    {"input":[[6,6],[2,4]], "output":2}
    ],
    "attribute":[0,0,0,0,0,0,0,0,0,0,0,0,0,0,0,0,0,0,0,0,0,0,0,0,0,0,0,0,0,0,0,0,0,1]}
]